2 2 47.503654 76.052658 80.508823 75.834423 
14 4 232.466357 67.423621 210.252503 77.208372 210.620031 76.947096 200.775123 101.609824 
17 2 212.164714 40.519162 211.212560 73.549368 
19 4 76.733071 8.098433 85.840292 36.063515 84.909730 36.453598 104.627526 44.174313 
21 2 84.842963 76.016599 75.099501 101.345940 
22 10 46.576343 78.472701 52.759746 95.764705 52.929652 96.061959 61.515915 104.483774 61.488671 103.829343 66.517120 104.002314 67.529089 103.528315 74.933280 95.921752 75.141417 95.369334 81.313317 78.431974 
33 4 179.149609 101.643343 169.448669 77.930093 170.001835 77.736527 147.440686 68.647226 
41 2 338.693190 80.568342 331.626430 100.544725 
48 4 79.452806 20.988490 70.578421 4.457900 82.556214 34.484223 79.142145 22.319776 
56 6 294.244311 40.937723 277.142778 48.714444 276.799689 49.738512 272.712887 54.873566 272.214052 55.514955 272.581888 62.548018 
59 4 147.477744 44.444072 169.218560 35.792740 168.686201 37.357328 170.046909 29.595882 
60 4 359.428618 49.645592 341.754779 40.980347 362.992070 56.180023 359.358410 50.592071 
65 2 48.495036 34.699575 83.523111 35.570802 
67 2 465.184881 75.547630 466.146863 41.518286 
68 2 82.885030 74.511098 83.865064 40.510523 
72 2 479.857332 145.496050 479.946001 153.517179 
74 18 547.947495 67.592079 552.271604 93.538064 552.418852 93.220459 564.415322 111.222812 550.254735 50.354873 548.374837 66.485413 555.539650 35.514686 549.930244 50.659357 562.876509 25.791953 555.029997 35.910971 574.838961 17.539172 563.425402 25.391571 588.559875 17.984443 575.501243 17.468533 599.705091 26.229127 588.381989 17.655863 610.850131 43.730397 600.223385 25.087656 
77 2 44.283082 40.506924 45.337373 73.537110 
79 2 459.706570 130.490432 460.034378 137.567883 
80 2 352.095597 146.501975 352.144466 156.506621 
81 2 353.935194 122.478870 353.545333 114.449246 
82 2 315.837856 145.488324 315.714147 152.503776 
83 2 570.500018 134.807774 550.499960 134.808919 
84 2 214.816386 125.497505 214.871643 132.504955 
86 2 451.903371 114.488932 452.124229 122.537751 
87 2 267.846148 122.530600 268.028936 114.489292 
88 2 307.928376 129.543857 308.178550 138.508970 
89 2 163.241531 132.503960 163.278938 125.498820 
90 2 457.890743 137.517965 458.214010 130.486851 
91 2 466.304955 168.503602 466.175398 161.487528 
92 2 439.551979 113.418437 438.854058 121.530462 
93 2 430.046991 129.468765 429.874636 137.486557 
94 2 218.167079 117.512304 218.296484 110.496246 
95 2 419.400733 145.454530 419.108264 152.525160 
97 2 105.652592 120.565758 106.057148 113.474734 
98 2 178.329827 109.438158 177.955345 116.524064 
99 2 308.774444 114.490559 308.670200 122.502215 
100 2 213.147822 131.521465 212.776076 125.422224 
101 2 220.044071 109.481644 219.761085 116.510511 
102 2 335.546051 121.523843 335.369956 114.478257 
103 2 395.502849 139.047200 385.503245 138.984275 
104 2 204.471428 109.500397 204.582715 117.512741 
105 2 303.664610 122.496672 303.502528 114.479732 
106 2 596.019936 153.571861 596.307440 147.490896 
107 2 466.005482 122.498300 465.978570 114.498390 
108 2 550.497841 132.918899 570.504995 132.844569 
109 2 472.472655 126.579728 473.137379 118.470276 
110 2 4.607404 110.500240 4.587265 119.500195 
111 2 393.119114 114.513369 393.400798 122.538582 
112 2 425.618831 114.487657 425.506597 122.500092 
113 2 623.205546 156.468289 623.009086 164.487974 
115 2 214.935950 117.486407 214.685774 109.463027 
116 2 96.859227 110.489489 97.064734 117.512736 
117 4 613.441821 53.116693 593.447109 56.151533 592.710195 56.141982 570.308403 69.170561 
119 2 98.902653 117.508318 99.047621 110.490655 
124 2 569.500006 149.737284 550.499998 149.737139 
125 2 610.054942 165.488041 609.882157 157.470214 
126 2 550.499944 148.131648 569.500096 148.128743 
127 2 214.502821 133.729102 181.499604 133.608328 
128 2 635.579847 119.064538 613.456665 122.193611 
129 2 453.365356 145.476290 453.197819 153.493685 
130 2 326.499989 154.474749 304.499551 154.484484 
